EDA_text_EY
…
sale_listings_clean %>%
  group_by(addr_city) %>%
  summarize(mean = mean(price), n=n()) 

## # A tibble: 112 x 3
##    addr_city              mean     n
##    <chr>                 <dbl> <int>
##  1 arverne             573835.    34
##  2 astoria            1161481.   612
##  3 bath beach          731286.     7
##  4 bayonne             434538.   708
##  5 bayside             808332.   365
##  6 bedford-stuyvesant 2599000      1
##  7 beechhurst          522933      5
##  8 belle harbor       1225000      1
##  9 bellerose           662790.    61
## 10 breezy point        385000      1
## #  with 102 more rows

amenities %>%
  group_by(name) %>%
  summarize(n=n())

## # A tibble: 120 x 2
##    name                        n
##    <chr>                   <int>
##  1 assigned_parking           64
##  2 balcony                   981
##  3 basement_finished          24
##  4 basement_full              17
##  5 basement_partial            2
##  6 basement_unfinished         3
##  7 bayfront                   14
##  8 beachfront                  6
##  9 bike_room                3632
## 10 board_approval_required     2
## #  with 110 more rows
…
